{
    "settings": {
        "sleep": 1.0
    },
   
    "PIDsettings": {
        "set_point": -35.0,
        "kp": 3.0,
        "ki": 0.5,
        "kd": 19.5,
        "duration": 200.0
    },
 
    "PS": {
        "config_file": "/home/epianori/input-hw.json",
        "channel": "peltier",
        "max_voltage": 12.5
    },
    
    "arduino": {
	"hot_ntc_pin": 1,
	"cold_ntc_pin": 0,
        "sht85_address": "0x44",
	"port": "/dev/ttyACM0",
        "refTemp": 298.15,
        "Rref": 10000.0,
        "Bntc": 3380.0,
        "V": 5.05,
        "Rdiv": 10000.0
    }
}
